src/vhdl/PR2/test.vcd
$date
  Thu Jun  9 19:31:10 2022
$end
$version
  GHDL v0
$end
$timescale
  1 fs
$end
$scope module standard $end
$upscope $end
$scope module std_logic_1164 $end
$upscope $end
$scope module numeric_std $end
$upscope $end
$scope module test_bench $end
$var reg 1 ! s_in $end
$var reg 1 " s_out $end
$scope module uut $end
$var reg 1 # s_in $end
$var reg 1 $ s_out $end
$var reg 5 % c[4:0] $end
$upscope $end
$upscope $end
$enddefinitions $end
#0
1!
0"
1#
0$
b00010 %
#10000000
0!
0#
b00011 %
#20000000
1!
1#
b00100 %
#30000000
0!
0#
b00101 %
#40000000
1!
1#
b00110 %
#50000000
0!
0#
b00111 %
#60000000
1!
1#
b01000 %
#70000000
0!
0#
b01001 %
#80000000
1!
1#
b01010 %
#90000000
0!
0#
b01011 %
#100000000
1!
1#
b01100 %
#110000000
0!
0#
b01101 %
#120000000
1!
1#
b01110 %
#130000000
0!
0#
b01111 %
#140000000
1!
1#
b10000 %
#150000000
0!
0#
b10001 %
#160000000
1!
1#
b10010 %
#170000000
0!
0#
b10011 %
#180000000
1!
1#
b10100 %
#190000000
0!
0#
b10101 %
#200000000
1!
1#
b10110 %
#210000000
0!
0#
b10111 %
#220000000
1!
1#
b11000 %
#230000000
0!
0#
b11001 %
#240000000
1!
1#
b11010 %
#250000000
0!
0#
b11011 %
#260000000
1!
1#
b11100 %
#270000000
0!
0#
b11101 %
#280000000
1!
1#
b11110 %
#290000000
0!
1"
0#
1$
b00000 %
#300000000
1!
0"
1#
0$
b00001 %
#310000000
0!
0#
b00010 %
#320000000
1!
1#
b00011 %
#330000000
0!
0#
b00100 %
#340000000
1!
1#
b00101 %
#350000000
0!
0#
b00110 %
#360000000
1!
1#
b00111 %
#370000000
0!
0#
b01000 %
#380000000
1!
1#
b01001 %
#390000000
0!
0#
b01010 %
#400000000
1!
1#
b01011 %
#410000000
0!
0#
b01100 %
#420000000
1!
1#
b01101 %
#430000000
0!
0#
b01110 %
#440000000
1!
1#
b01111 %
#450000000
0!
0#
b10000 %
#460000000
1!
1#
b10001 %
#470000000
0!
0#
b10010 %
#480000000
1!
1#
b10011 %
#490000000
0!
0#
b10100 %
#500000000
1!
1#
b10101 %
#510000000
0!
0#
b10110 %
#520000000
1!
1#
b10111 %
#530000000
0!
0#
b11000 %
#540000000
1!
1#
b11001 %
#550000000
0!
0#
b11010 %
#560000000
1!
1#
b11011 %
#570000000
0!
0#
b11100 %
#580000000
1!
1#
b11101 %
#590000000
0!
0#
b11110 %
#600000000
1!
1"
1#
1$
b00000 %
